1 10 20
100 200 125
201 210 89
900 1000 174
673251 901770 525
68237 841186 525
7041 347405 443
955574 704140 525
375458 182640 443
816954 126353 509
599558 378536 470
43095 52646 340
273656 346056 441
739424 507581 509
570697 60124 470
926444 767113 525
720120 396444 509
697760 567544 509
536035 771402 509
709797 567456 509
219673 485569 449
477975 923551 525
797157 987678 525
127063 571561 470
126940 728206 509
317419 934404 525
817028 973068 525
352740 73812 443
306999 347513 441
558766 906957 525
652604 476283 509
437622 817089 509
795359 152444 509
482718 156158 449
350211 641751 509
661739 653546 429
343099 151988 443
68010 648630 509
298668 129738 443
944258 496880 525
486489 761465 509
238415 807226 509
257618 441484 449
488082 161497 449
793010 991687 525
669901 863088 525
439610 118015 449
8815 495711 449
689258 358610 509
90108 741685 509
537042 252954 470
468437 905761 525
956192 939803 414
156392 846781 525
257166 285206 407
685787 651695 442
391512 514681 470
842665 320084 525
398433 738264 509
206877 285404 443
629121 270287 509
43699 33832 324
795385 453483 509
31969 999224 525
593775 137485 470
60199 461499 449
759048 929226 525
88830 200275 383
120127 453032 449
121837 396069 443
841991 492600 525
583251 493942 470
371504 400483 436
24424 286750 443
77666 683643 509
646214 724234 504
557225 464666 470
996226 500580 525
641525 833390 504
377342 4669 443
834795 665748 504
971780 72281 525
993416 462196 525
833664 176088 509
817645 765915 468
49050 78116 351
441110 92616 449
540570 993131 525
425359 673067 509
474274 730779 509
812958 969941 525
552454 274982 470
8362 595384 470
822917 873080 525
635022 725303 504
893484 806934 525
190874 847992 525
578241 127199 470
44530 998141 525
210759 306727 443
734861 243934 509
583578 816633 509
894289 946764 507
324264 99906 443
701190 378012 509
201222 43508 383
953544 874636 507
320751 308527 384
735373 568769 509
138624 324450 443
198986 583644 470
840938 566828 525
860036 860786 357
732248 759864 424
48215 844175 525
613483 74723 470
888453 996119 507
736885 570531 509
793928 318953 509
298022 655234 509
652865 177391 509
18513 175868 383
269527 292256 407
626447 61999 509
393211 574646 470
164966 223167 386
83028 797037 509
477192 286263 449
732793 838775 525
727337 287662 509
890277 142417 525
396623 469910 449
838962 851392 419
81724 406883 443
423633 864098 525
645085 637157 416
91954 213706 383
300736 893714 525
485752 420858 444
514983 512607 364
636281 147652 509
952651 768501 525
358000 799745 509
187963 850982 525
264089 605439 470
137944 689693 509
323609 541479 470
804162 859150 525
507923 902411 525
308463 774331 509
651680 211422 509
628189 474936 509
813819 87661 509
161560 814415 509
301367 921333 525
95356 94955 328
591988 565742 434
689921 107173 509
64625 57680 335
600965 497725 470
872222 453550 525
910625 459731 525
415964 831047 509
624658 199022 470
804280 154848 509
639383 560486 509
360821 702701 509
27419 409148 443
437912 167682 449
717100 448116 509
936583 446589 525
546715 51402 470
287631 469050 449
632100 460679 509
894708 175134 525
79028 905588 525
28913 949413 525
760415 872177 525
706192 26047 509
548307 682179 509
309516 166091 443
652417 663303 429
850435 210274 525
669507 460465 509
380203 926083 525
3499 642857 509
503814 423208 444
797811 367245 509
319877 480089 449
932321 840923 476
378870 919911 525
390011 111302 443
406572 225135 443
336463 823651 509
409578 58882 443
563336 408752 470
295846 795567 509
865035 277022 525
493002 691209 509
103593 581114 470
527699 995097 525
152420 584922 470
85914 924211 525
404801 467450 449
