434313 417133 418
467938 732382 509
497815 947376 525
437913 682069 509
647992 659419 429
442911 264798 449
794289 2055 509
312050 734832 509
524824 885053 525
693373 526522 509
413535 974489 525
579090 589455 434
827046 858408 525
554960 786765 509
638681 480109 509
448380 328743 449
1703 559206 470
63004 155823 375
984455 97205 525
361871 495842 449
305054 672606 509
266778 128617 443
981904 256567 525
572835 766504 509
778700 110200 509
420396 208490 449
489807 69956 449
600132 154447 470
313375 224498 443
921210 37424 525
63129 240037 443
310120 345728 384
756145 320429 509
45179 459234 449
223729 20947 386
36871 631204 509
562186 786868 509
516670 190110 470
697727 740205 504
526952 657153 509
704008 857223 525
34342 5205 311
193976 746035 509
170441 91694 383
7163 869536 525
409739 9531 443
770239 236343 509
45208 735813 509
871933 781606 525
476898 244884 449
832363 308219 509
267970 966741 525
814625 198738 509
853626 654752 525
661189 307396 509
91142 457165 449
479352 68995 449
440031 640007 509
277628 80888 443
481843 370736 449
859202 293259 525
884113 828428 525
145041 579360 470
543476 196987 470
27541 187508 383
117771 483537 449
595890 378736 470
23876 871448 525
653104 394661 509
893380 450163 525
53795 235270 443
694308 838107 525
756524 867021 525
697249 28611 509
363280 967175 525
372783 487353 449
623114 318524 470
127880 487681 449
882745 39175 525
680264 382796 509
566916 881094 525
784279 875957 525
557012 674844 509
125611 90324 354
100614 951235 525
515636 633319 509
642261 973446 525
209267 813834 509
295328 691029 509
575178 616322 447
227302 836853 509
172083 757785 509
128440 498561 449
96240 704222 509
867444 760053 525
26029 575337 470
655666 241467 509
865199 961227 507
880242 813369 525
905935 110417 525
224067 919759 525
693786 381508 509
652973 689705 442
734706 245570 509
373465 704389 509
722118 704369 504
681745 946233 525
277124 804124 509
753484 604653 509
942243 59933 525
211664 531675 470
941763 626731 525
885264 724862 525
899135 987539 507
311069 483379 449
695463 274396 509
652945 802256 504
388308 295348 441
963782 837490 525
654310 90592 509
821653 892370 525
389126 634874 509
959845 849293 507
177653 113655 383
772572 286527 509
737530 647079 504
126768 388251 443
807836 931710 525
252746 490896 449
130678 446988 449
750542 985998 525
24402 87315 351
781788 901487 525
834732 596856 509
621410 943314 525
187158 330091 443
8204 414836 449
980051 693439 525
142062 648013 509
39506 774032 509
691638 418809 509
506122 172029 449
833799 365911 509
415910 877373 525
749670 221803 509
544471 615185 452
409931 538873 470
256860 29565 443
492412 821126 509
609817 880999 525
412177 930067 525
78953 820917 509
231894 563811 470
932287 995282 507
956 451385 449
867323 879215 432
463715 385636 449
466420 314793 449
665350 313745 509
279755 232282 407
862304 132317 525
118088 252839 443
914590 192399 525
441465 804169 509
65445 987675 525
638859 533808 509
243638 764857 509
710051 411717 509
781217 747306 468
364428 228693 443
182052 362754 443
617693 779260 509
123990 233268 443
284325 128830 443
552579 666181 509
643160 736438 504
487959 348204 449
209806 511765 449
47255 775997 509
680770 652306 442
388781 527074 470
652403 147031 509
436355 210663 449
258803 726384 509
858838 981292 507
817376 728386 468
987918 778267 525
997020 97320 525
944969 505275 525
548205 615479 447
56891 311428 443
340928 918053 525
956342 521985 525
137969 507972 449
62584 741944 509
784320 289616 509
767239 496478 509
171323 577625 470
995873 533963 525
277234 609042 470
924111 164665 525
468401 507553 426
427269 864725 525
142115 575979 470
947727 221900 525
500640 634941 509
112005 996679 525
121170 428715 449
755799 769412 468
400597 342048 441
285009 289221 389
316148 648566 509
441359 741342 509
372909 638669 509
870686 933528 476
20178 53639 340
570778 44462 470
69355 986520 525
871576 692418 525
272665 541303 470
816516 169130 509
251550 334425 407
233833 596501 470
126678 307344 443
594281 998010 525
919441 238624 525
829615 569282 509
622263 992862 525
261532 762920 509
79895 194149 383
902280 291841 525
733309 311644 509
291779 963298 525
89480 688019 509
842367 405570 525
139093 167198 383
655405 378891 509
365315 713688 509
546129 15901 470
487262 265458 449
767826 212450 509
913375 965063 507
965851 750687 525
773106 303676 509
261924 634385 509
208836 943068 525
577193 274420 470
981921 800075 525
59316 108337 354
590948 378251 470
34146 512363 470
176437 206141 365
179021 296316 443
964201 947005 414
401152 94518 443
328964 341905 366
496577 981047 525
255824 46763 443
984607 344596 525
393500 343637 441
170778 184196 365
506518 239483 449
880309 64375 525
292829 460568 449
646048 374752 509
800136 997331 525
593695 598759 372
518333 298227 470
934461 273712 525
374105 563430 470
718348 148575 509
685689 930827 525
557428 796129 509
174508 714320 509
439449 54431 449
752235 565884 509
376343 180653 443
920848 826319 525
960442 480990 525
458615 289611 449
962266 412003 525
214277 747895 509
757723 868806 525
217259 265396 443
238937 833018 509
390284 478782 449
487926 131444 449
85897 705187 509
885967 816105 525
598261 498838 470
202468 410046 449
653639 303102 509
513871 267817 470
322280 722058 509
759970 864431 525
509837 408079 449
548442 866070 525
967481 315772 525
57640 6619 340
713452 218657 509
